{
  "scopeName": "source.harescript",
  "patterns": 
    [
      { "include": "text.html.basic" } 
    ]
  , "injections":
    { "L:source.harescript": 
      { "patterns": 
        [
          { "name": "source.harescript.text" 
          , "begin": "<\\?wh"
          , "end": "\\?>"
          , "patterns": [{ "include": "#harescript" }]
          }
        ]
      }
    }
  , "repository":
    { "harescript": 
      { "patterns": 
        [ { "include": "#comments"}
        , { "match": "(?i)\\b(LOADLIB|IF|RETURN)\\b"
          , "name":"keyword.control"
          }
        , { "match": "(?i)\\b(INTEGER|INTEGER64|STRING|MONEY|FLOAT|ARRAY|VARIANT|RECORD|BOOLEAN|OBJECT)\\b"
          , "name":"storage.type"
          }
        , { "match": "(?i)\\b(PUBLIC|PRIVATE|STATIC|UPDATE|MACRO|FUNCTION|OBJECTTYPE)\\b"
          , "name":"storage.type"
          }
        , { "match": "(?i)this"
          , "name": "constant.language"
          }
        , { "match": "=="
          , "name": "invalid.illegal"
          }
        , { "match": "(\\^|->|:=|=|!=)"
          , "name": "keyword.operator"
          }
        , { "match": "(?i)\\b(AND|OR|NOT|SELECT|FROM|WHERE)\\b"
          , "name":"keyword.operator"
          }
        , { "include": "#strings"}
        , { "match": "[a-zA-Z_][a-zA-Z0-9_]+"
          , "name": "variable.other.identifier"
          }
        ]
      }
    , "strings":
      { "patterns":
        [
          { "begin": "\"",
            "beginCaptures": {
              "0": {
                "name": "punctuation.definition.string.begin.harescript"
              }
            },
            "end": "\"",
            "endCaptures": {
              "0": {
                "name": "punctuation.definition.string.end.harescript"
              }
            },
            "name": "string.quoted.double.harescript",
            "xpatterns": [ { "include": "#stringcontent" } ]
          },
          { "begin": "'",
            "beginCaptures": {
              "0": {
                "name": "punctuation.definition.string.begin.harescript"
              }
            },
            "end": "'",
            "endCaptures": {
              "0": {
                "name": "punctuation.definition.string.end.harescript"
              }
            },
            "name": "string.quoted.single.harescript",
            "xpatterns": [ { "include": "#stringcontent" } ]
          },
          { "begin": "`",
            "beginCaptures": {
              "0": {
                "name": "punctuation.definition.string.begin.harescript"
              }
            },
            "end": "`",
            "endCaptures": {
              "0": {
                "name": "punctuation.definition.string.end.harescript"
              }
            },
            "name": "string.quoted.single.harescript",
            "xpatterns": [ { "include": "#stringcontent" } ]
          }

        ]
      }
    , "stringcontent": {}
    , "comments":
      { "patterns": 
        [ { "match": "//.*"
          , "name": "comment.line"
          }
        ]
      }
    }
}